{
    "HOST": "0.0.0.0",
    "PORT": 5010,
    "MQTT_BROKER_HOST": "localhost",
    "MQTT_BROKER_PORT": 1883,
    "MESSAGE_TYPES": [
        "text",
        "image",
        "video",
        "location",
        "concat",
        "audio",
        "sticker",
        "doodle",
        "gify"
    ],
    "USER_DB": "userList__yellow",
    "MESSAGE_DB": "messages__yellow",
    "CHAT_LIST_DB": "chatList__yellow",
    "MESSAGE_LOGS_DB": "messageLogs__yellow",
    "appName" : "Twoswap",
    "secretKey": "support@twoswap",
    "mailGunDomain": "sandboxe33313763ed74fa28cff479b829939f9.mailgun.org",
    "mailGunAPiKey": "key-8507bee00038fea1b230991886583fe8",
    "authorization": "KMajNKHPqGt6kXwUbFN3dU46PjThSNTtrEnPZUefdasdfghsaderf1234567890ghfghsdfghjfghjkswdefrtgyhdfghj",
    "mqttUserName": "twoswap",
    "mqttPassword": "5GekvtJQDzjgf4kuqZ",
    "mongodbUrl" : "mongodb://twoswap:Enkb9KeswpjRZTZe2s@159.65.73.21:27017/twoswap"
}